{
  "baseBudgetData": {
    "VAT": 20,
    "incomeTax": 20,
    "GDP": 26035900000,
    "pensioners": 304593
  },

  "structure" : {
    "vat": {
      "level1": "In1-Käibemaks",
      "level2": "In2-Käibemaks"
    },
    "incomeTax": {
      "level1": "In1-Tulumaks",
      "level2":{
        "level21": "In2-Juriidilise_isiku_tulumaks",
        "level22": "In2-Füüsilise_isiku_tulumaks"
      }
    }
  },

  "sliders": [
    {
      "id": "VAT-tax",
      "name": "Käibemaks",
      "value": 20
    },
    {
      "id": "income-tax",
      "name": "Tulumaks",
      "value": 20
    }
  ],

  "scenarios": [
    {
      "id": "science1",
      "name": " ...suurendada teaduse rahastust 1%-ni SKP-st?",
      "modifiers": {
        "sciencePercentage": 0.01,
        "firstLevelNodeName": "Ex1-Haridus-_ja_Teadusmin",
        "secondLevelNodeName": "Ex2-Teadus"
      }
    },
    {
      "id": "science2",
      "name": " ...suurendada teaduse rahastust 2%-ni SKP-st?",
      "modifiers": {
        "sciencePercentage": 0.02,
        "firstLevelNodeName": "Ex1-Haridus-_ja_Teadusmin",
        "secondLevelNodeName": "Ex2-Teadus"
      }
    },
    {
      "id": "pension",
      "name": " ...suurendada pensione 100€ võrra?",
      "modifiers": {
        "extraPensionYearly": 1200,
        "percentageToVAT": 0.15,
        "percentageToIncomeTax": 0.05,
        "firstLevelNodeName": "Ex1-Sotsiaalministeerium",
        "secondLevelNodeName": "Ex2-Sotsiaalne_kaitse",
        "thirdLevelNodeName": "Ex3-Sotsiaalkindlustuse_programm"
      }
    },
    {
      "id": "parliament",
      "name": " ...vähendada Riigikogu liikmete arvu 50-le?",
      "modifiers": {
        "parliamentCostConstant": 0.8,
        "firstLevelNodeName": "Ex1-Riigikogu"
      }
    }
  ]
}